﻿{
  "id":12,
  "img":"https://ad.csdnevnik.ru/special/staging/cycloferon/img/articles/12.png",
  "name":"Как НЕ нужно мотивировать ребёнка",
  "text":[
    {
      "text":"Мотивация — основа человеческих поступков. Большинство родителей, используя различные методы мотивации по отношению к своим детям, действуют интуитивно, опираясь на заложенный в нас на генетическом уровне опыт поколений. И чаще всего эти методы работают. Однако некоторые популярные способы взаимодействия с детьми не приводят к нужным результатам. Ниже мы рассмотрим несколько из них и объясним, почему их следует избегать.",
      "img":"https://ad.csdnevnik.ru/special/staging/cycloferon/img/art/12.jpg"
    },
    {
      "title":"Манипуляция эмоциями",
      "text":"«Не обращайся ко мне, пока не сделаешь это…», «Слышать ничего не хочу, если ты не…» — некоторые родители прибегают к подобным ультиматумам, стремясь добиться от ребёнка желаемого. За счёт глубокой привязанности к родителю первое время этот способ, возможно, и будет работать, но по мере взросления ребёнка постепенно исчерпает себя. В конечном итоге, это может привести к охлаждению отношений и нежеланию ребёнка лишний раз общаться с вами. Чтобы этого не произошло, нужно избегать требований в ультимативной форме. Вместо этого подробно и спокойно объясните ребёнку, почему вы хотите, чтобы он сделал то или иное, и почему это так важно для вас."
    },
    {
      "title":"Лишение удовольствий",
      "text":"«Если получишь плохую оценку, то гулять не пойдёшь», «Забудешь прибрать в комнате — лишишься планшета» — в некоторых семьях такой приём широко распространён. Подобные слова могут глубоко ранить ребёнка. Ведь не всегда оценки в школе зависят от его стараний, а уборка дома — следствие забывчивости или нежелания заниматься ей. Кроме того, ребёнок и так может быть расстроен ситуацией, и наказание со стороны родителей только усугубит его чувство вины и стыда. Или вызовет реакцию протеста и потерю интереса к возможным будущим успехам. Вместо этого метода можно использовать противоположный — неожиданную награду, его мы рассмотрим в <a data-href='/article/13' target='_blank' class='link-article link-article--router'>следующей статье.</a>"
    },
    {
      "title":"Денежные поощрения",
      "text":"С этим способом мотивации рекомендуется быть очень осторожными. Иногда уместно вознаградить ребёнка недостающей суммой на покупку вещи, о которой он давно мечтал, за успех на экзамене или другое достижение. Но не стоит постоянно поощрять ребёнка финансово, это может привести к тому, что в определённый момент школьник просто откажется делать домашнее задание, потому что сейчас ему не так уж и нужны деньги."
    },
    {
      "title":"Сравнение с другими детьми",
      "text":"«Вот дочка тёти Лены отлично рисует, и даже конкурс выиграла», «Коля читает быстрее всех в классе», «Почему все хорошо написали контрольную, а ты не справился?» Каждый ребёнок индивидуален, имеет свои интересы, планы и способы претворять их в жизнь. У всех разные темпы развития и способности к восприятию новой информации. Подобные сравнения могут вызвать у ребёнка неуверенность в себе, своих силах, а это не способствует успехам в учёбе и жизни."
    }
  ]
}