﻿{
  "id":14,
  "img":"https://ad.csdnevnik.ru/special/staging/cycloferon/img/articles/14.png",
  "name":"Можно ли применять наказание?",
  "text":[
    {
      "text":"К счастью, большинство родителей воспитывают детей, стараясь избегать конфликтов. Но время от времени каждый родитель вставал перед сложным выбором: наказывать ребёнка или нет."
    },
    {
      "text":"Вопрос об уместности и способах наказания вызывает ожесточённые споры среди психологов. Но сколько бы ни длились дебаты, однозначного ответа нет. Принятие решения о наказании зависит от характера ребёнка, его возраста и совершенной провинности. Если возникла ситуация, в которой без наказания не обойтись, то следует руководствоваться единственным мудрым правилом: цель наказания — научить, а не навредить.", 
      "img": "https://ad.csdnevnik.ru/special/staging/cycloferon/img/art/14.jpg"
    },
    {
      "title":"О чём важно помнить",
      "list": [
        "<span class='bold'>Ребёнок должен понимать, за что может быть наказан.</span><br> Если он сначала совершил проступок, а уже потом узнал, что так делать нельзя, то может воспринять ваши действия как несправедливость по отношению к себе и, скорее всего, будет глубоко обижен. Наказание уместно только тогда, когда вы точно уверены, что ребёнок понимал нормы и правила поведения в данной ситуации, но продолжал раз за разом их нарушать.",
        "<span class='bold'>Дети быстро забывают о содеянном.</span><br> Если наказание последовало не сразу, а спустя какое-то время, ребёнку будет сложно провести параллель между вашей реакцией и своим проступком. С большой вероятностью он посчитает ваши действия странными, а наказание —  незаслуженным. В этом случае общение с ребёнком по поводу происшествия следует свести к дружеской беседе с поучительными выводами.",
        "<span class='bold'>Очень важно сохранять спокойствие</span>, не повышать голос, не оскорблять и не говорить слов, о которых потом можете пожалеть. Дружелюбный убедительный тон родителя побудит ребёнка задуматься о том, что он сделал, в то время как крики и упреки лишь заставят его нервничать и могут быть восприняты как угроза.",
        "<span class='bold'>Посторонние люди не должны быть свидетелями выяснения отношений с ребёнком.</span><br> Наказание, каким бы оно ни было, — это вторжение в личное пространство маленького человека. Процесс этот сам по себе болезненный. Присутствие других людей может существенно ударить по самооценке ребёнка. Некоторые родители ошибочно полагают, что при посторонних ребёнок острее ощутит свою вину и стыд за содеянное. На самом деле, публичное наказание оказывает сильное психологическое давление на несформированную личность. К тому же, на фоне обиды и публичного унижения правильных выводов по самому поступку ребёнок так и не сделает.",
        "<span class='bold'>Наказание должно быть соразмерным тяжести проступка</span>, а также соответствовать уровню развития и возрасту ребёнка. В этом случае, помимо той воспитательной функции, которая на него возложена, наказание еще и поспособствует формированию чувства справедливости у школьника. Ну и, конечно же, после наказания необходимо помириться, а заодно и научить ребёнка поведению после ссоры. В процессе примирения не стоит лишний раз заострять внимание на проступке, повлекшем наказание, а вот рассказать о своих чувствах и переживаниях будет совсем не лишним. Объясните, почему вы рассердились. Тогда ребёнок лучше поймёт ваше поведение и научится анализировать свои мысли и ощущения."
      ]
    },
    {
      "text":"Напоследок, главное: важно помнить, что кроме кнута есть и пряник. Отмечайте успехи ребёнка и хорошее поведение. Если он будет знать, что наградой за соблюдение правил будет искренняя похвала родителей, это станет гораздо более сильной мотивацией, чем наказание."
    }
  ]
}