{
  "id":4,
  "img":"https://ad.csdnevnik.ru/special/staging/cycloferon/img/articles/4.png",
  "name":"Домашняя аптечка в период гриппа и простуд",
  "large": 1,
  "text":[
    {
      "text":"К сезону простуды и гриппа важно иметь в запасе не только знания о лечении этих заболеваний, но и необходимые препараты в домашней аптечке. Проверьте по списку, все ли нужные лекарства есть у вас."
    }, 
    {
      "title":"Препарат для промывания слизистой носа",
      "text":"В любой аптеке вы найдете богатый выбор спреев для промывания слизистой носа.<br><span class='bold'>Как это работает?</span> Слизистая — это первый барьер на пути вирусов. Соляные растворы, обладающие антисептическими свойствами, очищают слизистую носа, сокращая число накапливающихся вирусов."
    },
    {
      "title":"Противовирусная мазь для носа",
      "text": "Подойдет любая мазь, обладающая противовирусными и противовоспалительными свойствами.<br><span class='bold'>Как это работает?</span> Покрытая «смазкой» слизистая носа становится менее восприимчива к вирусам: они гибнут, не успев проникнуть дальше по дыхательным путям."
    },
    {
      "title": "Медицинские маски",
      "text":"Об этом методе защиты сегодня знают все. Медицинская маска относится к барьерным методам профилактики гриппа и ОРВИ.<br><span class='bold'>Что важно знать?</span> Одноразовые медицинские маски из аптеки должны закрывать рот и нос, плотно прилегать к лицу. Менять маску следует каждые 2 часа. Самодельные маски из марли лучше не использовать."
    },
    {
      "title": "Болеутоляющие, жаропонижающие средства",
      "text":"Не секрет, что <a data-href='/article/5' target='_blank' class='link-article link-article--router'>грипп и ОРВИ часто сопровождаются повышением температуры, головной болью, ломотой в мышцах и другими крайне неприятными симптомами.</a> Для нормализации температуры  и устранения головной боли врачи рекомендуют иметь в аптечке болеутоляющие и жаропонижающие средства.<br><span class='bold'>Что важно знать?</span> Применять жаропонижающие и болеутоляющие препараты следует строго по инструкции, соблюдая схему приёма, учитывая возрастные ограничения и придерживаясь рекомендаций лечащего врача."
    },
    {
      "title": "Противовирусный препарат Циклоферон®(таб.)",
      "text":"<a data-href='/article/9' target='_blank' class='link-article link-article--router'>Универсальный  противовирусный препарат</a>, применяется для лечения гриппа и ОРВИ. Способствует сокращению периода болезни и снижению риска развития осложнений.<br><span class='bold'>Как это работает?</span> Циклоферон® (таб.) обладает способностью блокировать размножение вирусов, препятствуя их активности, повышать собственный противовирусный иммунитет, а также оказывать противовоспалительное действие.<br><span class='bold'>Что важно знать?</span> Разрешен к применению взрослым и детям с 4 лет, отпускается без рецепта врача. Имеются противопоказания, перед применением ознакомьтесь с инструкцией."
    },
    {
      "title": "Сосудосуживающие капли в нос",
      "text":"<span class='bold'>Как это работает?</span> Механизм действия сосудосуживающих капель в нос (деконгестантов) заключается в сужении сосудов  слизистой оболочки полости носа, вследствие чего снижается производство слизи, уменьшается отёк и улучшается процесс носового дыхания. Это приносит пусть и временное, но значительное облегчение больному, тем более, что уменьшение отёка освобождает слуховую трубу, восстанавливается нормальная аэрация среднего уха."
    },
    {
      "title": "Раствор для полоскания горла",
      "text":"<span class='bold'>Как это работает?</span> Во время болезни на слизистой начинаются воспалительные процессы. Полоскание горла антисептическими, антибактериальными растворами способствует снятию воспаления и болевых ощущений.<br><span class='bold'>Чем полоскать?</span> Традиционно используется водно-содовый раствор (1 ч. л. соды на 0,5 л воды), отвар ромашки, шалфея или любой раствор-антисептик. При использовании отваров необходимо убедиться в отсутствии аллергии у ребёнка на эти растения."
    },
    {
      "title": "Средства, восстанавливающие водно-солевой баланс",
      "text":"Процесс, когда в организм поступает недостаточное количество жидкости, влекущий за собой обезвоживание организма, называется дегидратацией. У детей с <a data-href='/article/5' target='_blank' class='link-article link-article--router'>гипертермией</a>, попросту говоря, с высокой температурой, часто наблюдается вододефицитная дегидратация — когда потеря воды превышает потерю солей (например, при интенсивном испарении воды с поверхности кожи). Для восстановления водно-солевого баланса необходимо пить больше воды. Следует помнить, что речь идёт именно о воде, употребляемой вместе с другой жидкой пищей. Среднесуточная норма потребления воды ребёнком от 7 лет составляет 1,7—2,5 литра воды в день. Во время болезни норму следует увеличить в 1,5 раза."
    },
    {
      "title": "Антигистаминные препараты",
      "text":"Приём лекарственных препаратов может быть причиной аллергической реакции. На этот случай будет не лишним держать в аптечке любой лекарственный препарат для снятия аллергии."
    },
    {
      "title": "Градусник",
      "text":"Этот прибор есть в каждом доме. Ртутному или электронному градуснику отдать предпочтение — решать вам. Большинство педиатров предпочитают измерять температуру ртутным градусником."
    },
    {
      "title": "<div style='text-align:center;'>Будьте здоровы и не болейте!</div>"
    }
  ],
  "test": [
    {
      "id": 1,
      "question": "Как часто следует менять медицинскую маску?",
      "answers": [
        "1 раз в день",
        "Каждые 2 часа",
        "1 раз в неделю"
      ],
      "correct": 1
    },
    {
      "id": 2,
      "question": "Какие растворы подойдут для полоскания горла?<br> Выберите два варианта ответа.",
      "answers": [
        "Водно-содовый",
        "Отвар ромашки",
        "Водно-солевой"
      ],
      "correct": [0, 1],
      "multi": 2
    }
  ]
}